<?xml version="1.0" encoding="UTF-8"?>
<CustomTab xmlns="http://soap.sforce.com/2006/04/metadata">
    <description>The DreamTeam Document Manager.</description>
    <frameHeight>600</frameHeight>
    <label>Document Manager</label>
    <mobileReady>false</mobileReady>
    <motif>Custom20: Airplane</motif>
    <url>https://www.dreamfactory.net/sforce/dreamteam/document_manager.html?
sforce_session_id={!API.Session_ID}&amp;
sforce_server_url={!API.Partner_Server_URL_120}&amp;
sforce_user_name={!User.Username}&amp;
 sforce_full_name={!User.Name}&amp;
sforce_user_id={!User.Id}</url>
    <urlEncodingKey>UTF-8</urlEncodingKey>
</CustomTab>
