<?xml version="1.0" encoding="UTF-8"?>
<CustomTab xmlns="http://soap.sforce.com/2006/04/metadata">
    <customObject>true</customObject>
    <description>Feedback  provided by GLS Project Managers</description>
    <mobileReady>false</mobileReady>
    <motif>Custom179: TV Widescreen</motif>
</CustomTab>
